{
  "dependencies": {},
  "devDependencies": {},
  "ambientDependencies": {
    "knockout": "github:DefinitelyTyped/DefinitelyTyped/knockout/knockout.d.ts#1256c09f6526c97f511576074bb332afd936b681"
  }
}
